IE 360 HW1
…
Irrelavent rows are cleaned and the column names are changed to make
them more understandable.

data<-hw[-c(61:82),]
colnames(data)<-c("date","employment.rate","usd","clothing")

Then a year column is added to data so that it can be visualized by
years (A function from lubridate package is used).

data$Year<- year(data$date)
data

## # A tibble: 60 × 5
##    date       employment.rate   usd clothing  Year
##    <date>               <dbl> <dbl>    <dbl> <dbl>
##  1 2017-01-01            44.1  3.73     177.  2017
##  2 2017-02-01            45.2  3.67     172.  2017
##  3 2017-03-01            45.8  3.67     175.  2017
##  4 2017-04-01            46.8  3.65     191.  2017
##  5 2017-05-01            48    3.56     204.  2017
##  6 2017-06-01            47.4  3.52     201.  2017
##  7 2017-07-01            47.7  3.56     194.  2017
##  8 2017-08-01            48.1  3.51     187.  2017
##  9 2017-09-01            47.7  3.47     189.  2017
## 10 2017-10-01            47.6  3.66     211.  2017
## # … with 50 more rows
…
Now the search volume of keyword “trendyol” will be analyzed. Again,
the data is prepared to deep analyze firstly. The data types are changed
and year column is added. And also the name of the columns is Date and
“trendol”. The typo is to prevent the confusion between the name of the
dataset and variable.

library(readr)
trendyol <- read_csv("multiTimeline (3).csv", 
    col_types = cols(Date = col_date(format = "%m/%Y"), 
        trendol = col_number()))
trendyol$Year<- year(trendyol$Date)

trendyol

## # A tibble: 60 × 3
##    Date       trendol  Year
##    <date>       <dbl> <dbl>
##  1 2017-01-01      19  2017
##  2 2017-02-01      19  2017
##  3 2017-03-01      23  2017
##  4 2017-04-01      21  2017
##  5 2017-05-01      22  2017
##  6 2017-06-01      22  2017
##  7 2017-07-01      22  2017
##  8 2017-08-01      23  2017
##  9 2017-09-01      23  2017
## 10 2017-10-01      29  2017
## # … with 50 more rows
…
